﻿{
  "What can you do?": "Currently my developers are working on me thus, I can't do anything much.",
  "Who are you?": "My name is Cort. A simple nodejs based telegram bot.",
  "Why are you so pro?": "I don't know! I think my developers deserve that comment more than me! :)",
  "Who made you?": "My Main Developer is @at0mic01 (a.k.a Om Bhende)"
}